
        ############################################
        !!! WARNING - FPE detection is activated !!!
        ############################################

*************************************************************
 Geant4 version Name: geant4-09-04-patch-02    (24-June-2011)
                      Copyright : Geant4 Collaboration
                      Reference : NIM A 506 (2003), 250-303
                            WWW : http://cern.ch/geant4
*************************************************************


***** Table : Nb of materials = 4 *****

 Material: Beryllium     density:  1.848 g/cm3   RadL:  35.276 cm   Nucl.Int.Length:  39.449 cm   Imean:  63.700 eV 
   --->  Element: Beryllium ( )   Z =  4.0   N =   9.0   A =   9.01 g/mole  ElmMassFraction: 100.00 %  ElmAbundance 100.00 %

 Material:   Carbon     density:  2.265 g/cm3   RadL:  18.851 cm   Nucl.Int.Length:  35.410 cm   Imean:  81.000 eV 
   --->  Element: Carbon ( )   Z =  6.0   N =  12.0   A =  12.01 g/mole  ElmMassFraction: 100.00 %  ElmAbundance 100.00 %

 Material:     Iron     density:  7.870 g/cm3   RadL:   1.759 cm   Nucl.Int.Length:  16.969 cm   Imean: 286.000 eV 
   --->  Element: Iron ( )   Z = 26.0   N =  55.8   A =  55.85 g/mole  ElmMassFraction: 100.00 %  ElmAbundance 100.00 %

 Material:   Vacuum     density:  0.000 kg/m3   RadL: 25050955080.963 km   Nucl.Int.Length: 55654089760.283 km   Imean:  82.000 eV   temperature: 296.15 K  pressure:   0.00 atm
   --->  Element: Vacuum ( )   Z =  7.0   N =  14.0   A =  14.01 g/mole  ElmMassFraction: 100.00 %  ElmAbundance 100.00 %


/run/verbose 2
#
/testem/det/setMat Vacuum
#
/run/initialize
userDetector->Construct() start.

 The Box is 500 m   of Vacuum
Vacuum is registered to the default region.
physicsList->Construct() start.
physicsList->Construct() start.
physicsList->CheckParticleList() start.
physicsList->setCut() start.
CutLength : 1 km 
#
# inactivate other processes to make SynchrotronRadiation more visible
/process/inactivate msc
/run/physicsModified
/process/inactivate eIoni
/run/physicsModified
/process/inactivate eBrem
/run/physicsModified
/process/inactivate annihil
/run/physicsModified
/process/inactivate phot
/run/physicsModified
/process/inactivate compt
/run/physicsModified
/process/inactivate conv
/run/physicsModified
#
/testem/det/setField 1.0 tesla
#
/gun/particle e-
/gun/energy 9.9994890009 GeV
#
# expected results is:
# Emean = 20.48 keV
# E_rms = 37.18 keV
#
/run/beamOn 100

phot:   for  gamma    SubType= 12
      ===== EM models for the G4Region  DefaultRegionForTheWorld ======
       PhotoElectric :   Emin=        0 eV       Emax=         10 TeV

compt:   for  gamma    SubType= 13
      Lambda tables from 100 eV  to 10 TeV in 77 bins, spline: 1
      ===== EM models for the G4Region  DefaultRegionForTheWorld ======
       Klein-Nishina :   Emin=        0 eV       Emax=         10 TeV

conv:   for  gamma    SubType= 14
      Lambda tables from 1.022 MeV to 10 TeV in 77 bins, spline: 1
      ===== EM models for the G4Region  DefaultRegionForTheWorld ======
        BetheHeitler :   Emin=        0 eV       Emax=         10 TeV

msc:   for e-    SubType= 10
      Lambda tables from 100 eV  to 10 TeV in 77 bins, spline: 1
      RangeFactor= 0.04, stepLimitType: 1, latDisplacement: 1
      ===== EM models for the G4Region  DefaultRegionForTheWorld ======
          UrbanMsc93 :   Emin=        0 eV       Emax=         10 TeV

eIoni:   for  e-    SubType= 2
      dE/dx and range tables from 100 eV  to 10 TeV in 77 bins
      Lambda tables from threshold to 10 TeV in 77 bins, spline: 1
      ===== EM models for the G4Region  DefaultRegionForTheWorld ======
        MollerBhabha :   Emin=        0 eV       Emax=         10 TeV

eBrem:   for  e-    SubType= 3
      dE/dx and range tables from 100 eV  to 10 TeV in 77 bins
      Lambda tables from threshold to 10 TeV in 77 bins, spline: 1
      finalRange(mm)= 1, dRoverRange= 0.2, integral: 1, fluct: 1, linLossLimit= 0.01
      LPM flag: 1 for E > 1 GeV
      ===== EM models for the G4Region  DefaultRegionForTheWorld ======
               eBrem :   Emin=        0 eV       Emax=          1 GeV  AngularGenUrban
            eBremLPM :   Emin=        1 GeV      Emax=         10 TeV  AngularGenUrban

SynRad:  Incoherent Synchrotron Radiation
      good description for long magnets at all energies

eIoni:   for  e+    SubType= 2
      dE/dx and range tables from 100 eV  to 10 TeV in 77 bins
      Lambda tables from threshold to 10 TeV in 77 bins, spline: 1
      ===== EM models for the G4Region  DefaultRegionForTheWorld ======
        MollerBhabha :   Emin=        0 eV       Emax=         10 TeV

eBrem:   for  e+    SubType= 3
      dE/dx and range tables from 100 eV  to 10 TeV in 77 bins
      Lambda tables from threshold to 10 TeV in 77 bins, spline: 1
      finalRange(mm)= 1, dRoverRange= 0.2, integral: 1, fluct: 1, linLossLimit= 0.01
      LPM flag: 1 for E > 1 GeV
      ===== EM models for the G4Region  DefaultRegionForTheWorld ======
               eBrem :   Emin=        0 eV       Emax=          1 GeV  AngularGenUrban
            eBremLPM :   Emin=        1 GeV      Emax=         10 TeV  AngularGenUrban

annihil:   for  e+    SubType= 5
      Lambda tables from 100 eV  to 10 TeV in 77 bins, spline: 1
      ===== EM models for the G4Region  DefaultRegionForTheWorld ======
            eplus2gg :   Emin=        0 eV       Emax=         10 TeV

muMsc:   for mu+    SubType= 10
      Lambda tables from 100 eV  to 10 TeV in 77 bins, spline: 1
      RangeFactor= 0.2, step limit type: 0, lateralDisplacement: 1, polarAngleLimit(deg)= 0
      ===== EM models for the G4Region  DefaultRegionForTheWorld ======
          UrbanMsc90 :   Emin=        0 eV       Emax=         10 TeV

muIoni:   for  mu+    SubType= 2
      dE/dx and range tables from 100 eV  to 10 TeV in 77 bins
      Lambda tables from threshold to 10 TeV in 77 bins, spline: 1
      finalRange(mm)= 1, dRoverRange= 0.2, integral: 1, fluct: 1, linLossLimit= 0.01
      ===== EM models for the G4Region  DefaultRegionForTheWorld ======
               Bragg :   Emin=        0 eV       Emax=        200 keV
          BetheBloch :   Emin=      200 keV      Emax=          1 GeV
        MuBetheBloch :   Emin=        1 GeV      Emax=         10 TeV

muBrems:   for  mu+    SubType= 3
      dE/dx and range tables from 100 eV  to 10 TeV in 77 bins
      Lambda tables from threshold to 10 TeV in 77 bins, spline: 1
      ===== EM models for the G4Region  DefaultRegionForTheWorld ======
              MuBrem :   Emin=        0 eV       Emax=         10 TeV

muPairProd:   for  mu+    SubType= 4
      dE/dx and range tables from 100 eV  to 10 TeV in 77 bins
      Lambda tables from threshold to 10 TeV in 77 bins, spline: 1
      ===== EM models for the G4Region  DefaultRegionForTheWorld ======
          muPairProd :   Emin=        0 eV       Emax=         10 TeV

muIoni:   for  mu-    SubType= 2
      dE/dx and range tables from 100 eV  to 10 TeV in 77 bins
      Lambda tables from threshold to 10 TeV in 77 bins, spline: 1
      finalRange(mm)= 1, dRoverRange= 0.2, integral: 1, fluct: 1, linLossLimit= 0.01
      ===== EM models for the G4Region  DefaultRegionForTheWorld ======
            ICRU73QO :   Emin=        0 eV       Emax=        200 keV
          BetheBloch :   Emin=      200 keV      Emax=          1 GeV
        MuBetheBloch :   Emin=        1 GeV      Emax=         10 TeV

muBrems:   for  mu-    SubType= 3
      dE/dx and range tables from 100 eV  to 10 TeV in 77 bins
      Lambda tables from threshold to 10 TeV in 77 bins, spline: 1
      ===== EM models for the G4Region  DefaultRegionForTheWorld ======
              MuBrem :   Emin=        0 eV       Emax=         10 TeV

muPairProd:   for  mu-    SubType= 4
      dE/dx and range tables from 100 eV  to 10 TeV in 77 bins
      Lambda tables from threshold to 10 TeV in 77 bins, spline: 1
      ===== EM models for the G4Region  DefaultRegionForTheWorld ======
          muPairProd :   Emin=        0 eV       Emax=         10 TeV

Region <DefaultRegionForTheWorld> -- appears in <Vacuum> world volume
 Root logical volume(s) : Vacuum 
 Pointers : G4VUserRegionInformation[0], G4UserLimits[0], G4FastSimulationManager[0], G4UserSteppingAction[0]
 Materials : Vacuum 
 Production cuts :   gamma 1 km      e- 1 km      e+ 1 km  proton 0 fm 

========= Table of registered couples ==============================

Index : 0     used in the geometry : Yes     recalculation needed : No 
 Material : Vacuum
 Range cuts        :  gamma  1 km     e-  1 km     e+  1 km  proton 0 fm 
 Energy thresholds :  gamma  990 eV     e-  990 eV     e+  990 eV  proton -1 MeV
 Region(s) which use this couple : 
    DefaultRegionForTheWorld

====================================================================

Start closing geometry.
G4GeometryManager::ReportVoxelStats -- Voxel Statistics

    Total memory consumed for geometry optimisation:   0 kByte
    Total CPU time elapsed for geometry optimisation: 0 seconds
### Run 0 start.

--------- Ranecu engine status ---------
 Initial seed (index) = 0
 Current couple of seeds = 9876, 54321
----------------------------------------
G4ANALYSIS_USE was not set, there will be no AIDA histos
Start Run processing.

---> Begin of Event: 0
G4SynchrotronRadiation::GetMeanFreePath :
  MeanFreePath = 16.1828 cm 
G4SynchrotronRadiation::GetRandomEnergySR :
  Ecr   = 66.5 keV
  Emean = 20.48 keV
  E_rms = 37.18 keV
Run terminated.
Run Summary
  Number of events processed : 100
  User=0.28s Real=0.28s Sys=0s
Summary for synchrotron radiation :
  Number of photons = 64554
  Emean             = 20.24 +/- 0.1449 keV
  E_rms             = 36.82 keV
  Energy Max / Mean = 29.54
  MeanFreePath      = 16.2 cm 

--------- Ranecu engine status ---------
 Initial seed (index) = 0
 Current couple of seeds = 1554742231, 6856043
----------------------------------------
UserDetectorConstruction deleted.
UserPhysicsList deleted.
UserRunAction deleted.
UserPrimaryGenerator deleted.
G4 kernel has come to Quit state.
EventManager deleted.
UImanager deleted.
Units table cleared.
StateManager deleted.
RunManagerKernel is deleted.
RunManager is deleting.

