
        ############################################
        !!! WARNING - FPE detection is activated !!!
        ############################################

*************************************************************
 Geant4 version Name: geant4-09-04-patch-02    (24-June-2011)
                      Copyright : Geant4 Collaboration
                      Reference : NIM A 506 (2003), 250-303
                            WWW : http://cern.ch/geant4
*************************************************************


***** Table : Nb of materials = 14 *****

 Material: Aluminium     density:  2.700 g/cm3   RadL:   8.893 cm   Nucl.Int.Length:  38.860 cm   Imean: 166.000 eV 
   --->  Element: Aluminium ( )   Z = 13.0   N =  27.0   A =  26.98 g/mole  ElmMassFraction: 100.00 %  ElmAbundance 100.00 %

 Material: liquidArgon     density:  1.390 g/cm3   RadL:  14.065 cm   Nucl.Int.Length:  86.006 cm   Imean: 188.000 eV 
   --->  Element: liquidArgon ( )   Z = 18.0   N =  40.0   A =  39.95 g/mole  ElmMassFraction: 100.00 %  ElmAbundance 100.00 %

 Material:     Lead     density: 11.350 g/cm3   RadL:   5.612 mm   Nucl.Int.Length:  18.258 cm   Imean: 823.000 eV 
   --->  Element: Lead ( )   Z = 82.0   N = 207.2   A = 207.19 g/mole  ElmMassFraction: 100.00 %  ElmAbundance 100.00 %

 Material:    Water     density:  1.000 g/cm3   RadL:  36.092 cm   Nucl.Int.Length:  75.537 cm   Imean:  75.000 eV 
   --->  Element: Hydrogen (H)   Z =  1.0   N =   1.0   A =   1.01 g/mole  ElmMassFraction:  11.21 %  ElmAbundance  66.67 %
   --->  Element: Oxygen (O)   Z =  8.0   N =  16.0   A =  16.00 g/mole  ElmMassFraction:  88.79 %  ElmAbundance  33.33 %

 Material: Scintillator     density:  1.032 g/cm3   RadL:  42.549 cm   Nucl.Int.Length:  70.109 cm   Imean:  64.684 eV 
   --->  Element: Carbon (C)   Z =  6.0   N =  12.0   A =  12.01 g/mole  ElmMassFraction:  91.45 %  ElmAbundance  47.37 %
   --->  Element: Hydrogen (H)   Z =  1.0   N =   1.0   A =   1.01 g/mole  ElmMassFraction:   8.55 %  ElmAbundance  52.63 %

 Material:    Mylar     density:  1.397 g/cm3   RadL:  28.599 cm   Nucl.Int.Length:  56.108 cm   Imean:  75.967 eV 
   --->  Element: Carbon (C)   Z =  6.0   N =  12.0   A =  12.01 g/mole  ElmMassFraction:  62.49 %  ElmAbundance  45.45 %
   --->  Element: Hydrogen (H)   Z =  1.0   N =   1.0   A =   1.01 g/mole  ElmMassFraction:   4.20 %  ElmAbundance  36.36 %
   --->  Element: Oxygen (O)   Z =  8.0   N =  16.0   A =  16.00 g/mole  ElmMassFraction:  33.30 %  ElmAbundance  18.18 %

 Material:   quartz     density:  2.200 g/cm3   RadL:  12.295 cm   Nucl.Int.Length:  43.612 cm   Imean: 125.663 eV 
   --->  Element: Silicon (Si)   Z = 14.0   N =  28.1   A =  28.09 g/mole  ElmMassFraction:  46.75 %  ElmAbundance  33.33 %
   --->  Element: Oxygen (O)   Z =  8.0   N =  16.0   A =  16.00 g/mole  ElmMassFraction:  53.25 %  ElmAbundance  66.67 %

 Material:      Air     density:  1.290 mg/cm3  RadL: 285.161 m    Nucl.Int.Length: 662.904 m    Imean:  85.703 eV   temperature: 273.15 K  pressure:   1.00 atm
   --->  Element: Nitrogen (N)   Z =  7.0   N =  14.0   A =  14.01 g/mole  ElmMassFraction:  70.00 %  ElmAbundance  72.71 %
   --->  Element: Oxygen (O)   Z =  8.0   N =  16.0   A =  16.00 g/mole  ElmMassFraction:  30.00 %  ElmAbundance  27.29 %

 Material:  Aerogel     density: 200.000 mg/cm3  RadL:   1.493 m    Nucl.Int.Length:   4.356 m    Imean:  98.882 eV 
   --->  Element: Silicon (Si)   Z = 14.0   N =  28.1   A =  28.09 g/mole  ElmMassFraction:  29.22 %  ElmAbundance  11.12 %
   --->  Element: Oxygen (O)   Z =  8.0   N =  16.0   A =  16.00 g/mole  ElmMassFraction:  66.49 %  ElmAbundance  44.42 %
   --->  Element: Hydrogen (H)   Z =  1.0   N =   1.0   A =   1.01 g/mole  ElmMassFraction:   4.19 %  ElmAbundance  44.37 %
   --->  Element: Carbon (C)   Z =  6.0   N =  12.0   A =  12.01 g/mole  ElmMassFraction:   0.10 %  ElmAbundance   0.09 %

 Material: CarbonicGas     density:  1.842 mg/cm3  RadL: 196.501 m    Nucl.Int.Length: 466.112 m    Imean:  90.958 eV   temperature: 325.00 K  pressure:  50.00 atm
   --->  Element: Carbon (C)   Z =  6.0   N =  12.0   A =  12.01 g/mole  ElmMassFraction:  27.29 %  ElmAbundance  33.33 %
   --->  Element: Oxygen (O)   Z =  8.0   N =  16.0   A =  16.00 g/mole  ElmMassFraction:  72.71 %  ElmAbundance  66.67 %

 Material: WaterSteam     density:  0.300 kg/m3   RadL:   1.203 km   Nucl.Int.Length:   2.518 km   Imean:  68.998 eV   temperature: 500.00 K  pressure:   2.00 atm
   --->  Element: Hydrogen (H)   Z =  1.0   N =   1.0   A =   1.01 g/mole  ElmMassFraction:  11.21 %  ElmAbundance  66.67 %
   --->  Element: Oxygen (O)   Z =  8.0   N =  16.0   A =  16.00 g/mole  ElmMassFraction:  88.79 %  ElmAbundance  33.33 %

 Material: Galactic     density:  0.000 kg/m3   RadL: 204727512.315 pc   Nucl.Int.Length: 114561548.020 pc   Imean:  19.200 eV   temperature:   2.73 K  pressure:   0.00 atm
   --->  Element: Galactic ( )   Z =  1.0   N =   1.0   A =   1.01 g/mole  ElmMassFraction: 100.00 %  ElmAbundance 100.00 %

 Material:     Beam     density:  0.010 kg/m3   RadL:  36.786 km   Nucl.Int.Length:  85.515 km   Imean:  85.703 eV   temperature: 273.15 K  pressure:   0.02 atm
   --->  Element: Nitrogen (N)   Z =  7.0   N =  14.0   A =  14.01 g/mole  ElmMassFraction:  70.00 %  ElmAbundance  72.71 %
   --->  Element: Oxygen (O)   Z =  8.0   N =  16.0   A =  16.00 g/mole  ElmMassFraction:  30.00 %  ElmAbundance  27.29 %

 Material: G4_SODIUM_IODIDE     density:  3.667 g/cm3   RadL:   2.588 cm   Nucl.Int.Length:  42.894 cm   Imean: 452.000 eV 
   --->  Element: Na (Na)   Z = 11.0   N =  23.0   A =  22.99 g/mole
   --->  Isotope:  Na23   Z = 11   N =  23   A =  22.99 g/mole   abundance: 100.00 %  ElmMassFraction:  15.34 %  ElmAbundance  50.00 %
   --->  Element: I (I)   Z = 53.0   N = 127.0   A = 126.90 g/mole
   --->  Isotope:  I127   Z = 53   N = 127   A = 126.90 g/mole   abundance: 100.00 %  ElmMassFraction:  84.66 %  ElmAbundance  50.00 %



------------------------------------------------------------
---> The calorimeter is 10 layers of: [ 10mm of Lead + 5mm of liquidArgon ] 
------------------------------------------------------------
PhysicsList::SetCuts:CutLength : 1 mm 
Visualization Manager instantiating with verbosity "warnings (3)"...
Visualization Manager initialising...
Registering graphics systems...

You have successfully registered the following graphics systems.
Current available graphics systems are:
  ASCIITree (ATree)
  DAWNFILE (DAWNFILE)
  G4HepRep (HepRepXML)
  G4HepRepFile (HepRepFile)
  RayTracer (RayTracer)
  VRML1FILE (VRML1FILE)
  VRML2FILE (VRML2FILE)
  gMocrenFile (gMocrenFile)
  OpenGLStoredX (OGL)
  OpenGLImmediateX (OGLI)
  OpenGLStoredX (OGLS)
  OpenGLImmediateX (OGLIX)
  OpenGLStoredX (OGLSX)

Registering model factories...

You have successfully registered the following model factories.
Registered model factories:
  generic
  drawByCharge
  drawByParticleID
  drawByOriginVolume
  drawByAttribute

Registered filter factories:
  chargeFilter
  particleFilter
  originVolumeFilter
  attributeFilter

/run/verbose 2
# e+ 300MeV
#/gun/particle e+
#/gun/energy 300 MeV
#/run/beamOn 1
#
# list the existing physics processes
/process/list
     Transportation,                msc,              hIoni,            ionIoni
              eIoni,              eBrem,            annihil,               phot
              compt,               conv,              muMsc,             muIoni
            muBrems,         muPairProd,             hBrems,          hPairProd
              Decay
#
# switch off MultipleScattering
#/process/inactivate msc
#/run/beamOn 1
#
# switch on MultipleScattering
#/process/activate msc
#
# change detector parameter
/N03/det/setAbsMat Aluminium
/N03/det/setGapMat Aerogel
/N03/det/setAbsThick 2. cm
/N03/det/setGapThick 5. cm
/N03/det/setNbOfLayers 30
/N03/det/setSizeYZ 1.5 m
/N03/det/update

------------------------------------------------------------
---> The calorimeter is 30 layers of: [ 20mm of Aluminium + 50mm of Aerogel ] 
------------------------------------------------------------
Obsolete world logical volume is removed from the default region.
World is registered to the default region.
#
/gun/particle gamma
/gun/energy 500 MeV
/N03/event/printModulo 1024
#/run/beamOn 1024
/run/beamOn 4096

phot:   for  gamma    SubType= 12
      ===== EM models for the G4Region  DefaultRegionForTheWorld ======
       PhotoElectric :   Emin=        0 eV       Emax=         10 TeV

compt:   for  gamma    SubType= 13
      Lambda tables from 100 eV  to 10 TeV in 77 bins, spline: 1
      ===== EM models for the G4Region  DefaultRegionForTheWorld ======
       Klein-Nishina :   Emin=        0 eV       Emax=         10 TeV

conv:   for  gamma    SubType= 14
      Lambda tables from 1.022 MeV to 10 TeV in 77 bins, spline: 1
      ===== EM models for the G4Region  DefaultRegionForTheWorld ======
        BetheHeitler :   Emin=        0 eV       Emax=         10 TeV

msc:   for e-    SubType= 10
      Lambda tables from 100 eV  to 10 TeV in 77 bins, spline: 1
      RangeFactor= 0.04, stepLimitType: 1, latDisplacement: 1
      ===== EM models for the G4Region  DefaultRegionForTheWorld ======
          UrbanMsc93 :   Emin=        0 eV       Emax=         10 TeV

eIoni:   for  e-    SubType= 2
      dE/dx and range tables from 100 eV  to 10 TeV in 77 bins
      Lambda tables from threshold to 10 TeV in 77 bins, spline: 1
      finalRange(mm)= 1, dRoverRange= 0.2, integral: 1, fluct: 1, linLossLimit= 0.01
      ===== EM models for the G4Region  DefaultRegionForTheWorld ======
        MollerBhabha :   Emin=        0 eV       Emax=         10 TeV

eBrem:   for  e-    SubType= 3
      dE/dx and range tables from 100 eV  to 10 TeV in 77 bins
      Lambda tables from threshold to 10 TeV in 77 bins, spline: 1
      LPM flag: 1 for E > 1 GeV
      ===== EM models for the G4Region  DefaultRegionForTheWorld ======
               eBrem :   Emin=        0 eV       Emax=          1 GeV  AngularGenUrban
            eBremLPM :   Emin=        1 GeV      Emax=         10 TeV  AngularGenUrban

eIoni:   for  e+    SubType= 2
      dE/dx and range tables from 100 eV  to 10 TeV in 77 bins
      Lambda tables from threshold to 10 TeV in 77 bins, spline: 1
      finalRange(mm)= 1, dRoverRange= 0.2, integral: 1, fluct: 1, linLossLimit= 0.01
      ===== EM models for the G4Region  DefaultRegionForTheWorld ======
        MollerBhabha :   Emin=        0 eV       Emax=         10 TeV

eBrem:   for  e+    SubType= 3
      dE/dx and range tables from 100 eV  to 10 TeV in 77 bins
      Lambda tables from threshold to 10 TeV in 77 bins, spline: 1
      LPM flag: 1 for E > 1 GeV
      ===== EM models for the G4Region  DefaultRegionForTheWorld ======
               eBrem :   Emin=        0 eV       Emax=          1 GeV  AngularGenUrban
            eBremLPM :   Emin=        1 GeV      Emax=         10 TeV  AngularGenUrban

annihil:   for  e+    SubType= 5
      Lambda tables from 100 eV  to 10 TeV in 77 bins, spline: 1
      ===== EM models for the G4Region  DefaultRegionForTheWorld ======
            eplus2gg :   Emin=        0 eV       Emax=         10 TeV

msc:   for proton    SubType= 10
      Lambda tables from 100 eV  to 10 TeV in 77 bins, spline: 1
      RangeFactor= 0.2, stepLimitType: 0, latDisplacement: 1
      ===== EM models for the G4Region  DefaultRegionForTheWorld ======
          UrbanMsc90 :   Emin=        0 eV       Emax=         10 TeV

hIoni:   for  proton    SubType= 2
      dE/dx and range tables from 100 eV  to 10 TeV in 77 bins
      Lambda tables from threshold to 10 TeV in 77 bins, spline: 1
      finalRange(mm)= 1, dRoverRange= 0.2, integral: 1, fluct: 1, linLossLimit= 0.01
      ===== EM models for the G4Region  DefaultRegionForTheWorld ======
               Bragg :   Emin=        0 eV       Emax=          2 MeV
          BetheBloch :   Emin=        2 MeV      Emax=         10 TeV

hBrems:   for  proton    SubType= 3
      dE/dx and range tables from 100 eV  to 10 TeV in 77 bins
      Lambda tables from threshold to 10 TeV in 77 bins, spline: 1
      ===== EM models for the G4Region  DefaultRegionForTheWorld ======
               hBrem :   Emin=        0 eV       Emax=         10 TeV

hPairProd:   for  proton    SubType= 4
      dE/dx and range tables from 100 eV  to 10 TeV in 77 bins
      Lambda tables from threshold to 10 TeV in 77 bins, spline: 1
      ===== EM models for the G4Region  DefaultRegionForTheWorld ======
           hPairProd :   Emin=        0 eV       Emax=         10 TeV

msc:   for GenericIon    SubType= 10
      RangeFactor= 0.2, stepLimitType: 0, latDisplacement: 0
      ===== EM models for the G4Region  DefaultRegionForTheWorld ======
          UrbanMsc90 :   Emin=        0 eV       Emax=         10 TeV

ionIoni:   for  GenericIon    SubType= 2
      dE/dx and range tables from 100 eV  to 10 TeV in 77 bins
      Lambda tables from threshold to 10 TeV in 77 bins, spline: 1
      finalRange(mm)= 0.1, dRoverRange= 0.1, integral: 1, fluct: 1, linLossLimit= 0.02
      Stopping Power data for 17 ion/material pairs 
      ===== EM models for the G4Region  DefaultRegionForTheWorld ======
            BraggIon :   Emin=        0 eV       Emax=          2 MeV
          BetheBloch :   Emin=        2 MeV      Emax=         10 TeV

hIoni:   for  anti_proton    SubType= 2
      dE/dx and range tables from 100 eV  to 10 TeV in 77 bins
      Lambda tables from threshold to 10 TeV in 77 bins, spline: 1
      finalRange(mm)= 1, dRoverRange= 0.2, integral: 1, fluct: 1, linLossLimit= 0.01
      ===== EM models for the G4Region  DefaultRegionForTheWorld ======
            ICRU73QO :   Emin=        0 eV       Emax=          2 MeV
          BetheBloch :   Emin=        2 MeV      Emax=         10 TeV

msc:   for kaon+    SubType= 10
      Lambda tables from 100 eV  to 10 TeV in 77 bins, spline: 1
      RangeFactor= 0.2, stepLimitType: 0, latDisplacement: 1
      ===== EM models for the G4Region  DefaultRegionForTheWorld ======
          UrbanMsc90 :   Emin=        0 eV       Emax=         10 TeV

hIoni:   for  kaon+    SubType= 2
      dE/dx and range tables from 100 eV  to 10 TeV in 77 bins
      Lambda tables from threshold to 10 TeV in 77 bins, spline: 1
      finalRange(mm)= 1, dRoverRange= 0.2, integral: 1, fluct: 1, linLossLimit= 0.01
      ===== EM models for the G4Region  DefaultRegionForTheWorld ======
               Bragg :   Emin=        0 eV       Emax=    1.05231 MeV
          BetheBloch :   Emin=  1.05231 MeV      Emax=         10 TeV

hIoni:   for  kaon-    SubType= 2
      dE/dx and range tables from 100 eV  to 10 TeV in 77 bins
      Lambda tables from threshold to 10 TeV in 77 bins, spline: 1
      finalRange(mm)= 1, dRoverRange= 0.2, integral: 1, fluct: 1, linLossLimit= 0.01
      ===== EM models for the G4Region  DefaultRegionForTheWorld ======
            ICRU73QO :   Emin=        0 eV       Emax=    1.05231 MeV
          BetheBloch :   Emin=  1.05231 MeV      Emax=         10 TeV

muMsc:   for mu+    SubType= 10
      Lambda tables from 100 eV  to 10 TeV in 77 bins, spline: 1
      RangeFactor= 0.2, step limit type: 0, lateralDisplacement: 1, polarAngleLimit(deg)= 0
      ===== EM models for the G4Region  DefaultRegionForTheWorld ======
          UrbanMsc90 :   Emin=        0 eV       Emax=         10 TeV

muIoni:   for  mu+    SubType= 2
      dE/dx and range tables from 100 eV  to 10 TeV in 77 bins
      Lambda tables from threshold to 10 TeV in 77 bins, spline: 1
      finalRange(mm)= 1, dRoverRange= 0.2, integral: 1, fluct: 1, linLossLimit= 0.01
      ===== EM models for the G4Region  DefaultRegionForTheWorld ======
               Bragg :   Emin=        0 eV       Emax=        200 keV
          BetheBloch :   Emin=      200 keV      Emax=          1 GeV
        MuBetheBloch :   Emin=        1 GeV      Emax=         10 TeV

muBrems:   for  mu+    SubType= 3
      dE/dx and range tables from 100 eV  to 10 TeV in 77 bins
      Lambda tables from threshold to 10 TeV in 77 bins, spline: 1
      ===== EM models for the G4Region  DefaultRegionForTheWorld ======
              MuBrem :   Emin=        0 eV       Emax=         10 TeV

muPairProd:   for  mu+    SubType= 4
      dE/dx and range tables from 100 eV  to 10 TeV in 77 bins
      Lambda tables from threshold to 10 TeV in 77 bins, spline: 1
      ===== EM models for the G4Region  DefaultRegionForTheWorld ======
          muPairProd :   Emin=        0 eV       Emax=         10 TeV

muIoni:   for  mu-    SubType= 2
      dE/dx and range tables from 100 eV  to 10 TeV in 77 bins
      Lambda tables from threshold to 10 TeV in 77 bins, spline: 1
      finalRange(mm)= 1, dRoverRange= 0.2, integral: 1, fluct: 1, linLossLimit= 0.01
      ===== EM models for the G4Region  DefaultRegionForTheWorld ======
            ICRU73QO :   Emin=        0 eV       Emax=        200 keV
          BetheBloch :   Emin=      200 keV      Emax=          1 GeV
        MuBetheBloch :   Emin=        1 GeV      Emax=         10 TeV

muBrems:   for  mu-    SubType= 3
      dE/dx and range tables from 100 eV  to 10 TeV in 77 bins
      Lambda tables from threshold to 10 TeV in 77 bins, spline: 1
      ===== EM models for the G4Region  DefaultRegionForTheWorld ======
              MuBrem :   Emin=        0 eV       Emax=         10 TeV

muPairProd:   for  mu-    SubType= 4
      dE/dx and range tables from 100 eV  to 10 TeV in 77 bins
      Lambda tables from threshold to 10 TeV in 77 bins, spline: 1
      ===== EM models for the G4Region  DefaultRegionForTheWorld ======
          muPairProd :   Emin=        0 eV       Emax=         10 TeV

hIoni:   for  pi+    SubType= 2
      dE/dx and range tables from 100 eV  to 10 TeV in 77 bins
      Lambda tables from threshold to 10 TeV in 77 bins, spline: 1
      finalRange(mm)= 1, dRoverRange= 0.2, integral: 1, fluct: 1, linLossLimit= 0.01
      ===== EM models for the G4Region  DefaultRegionForTheWorld ======
               Bragg :   Emin=        0 eV       Emax=    297.505 keV
          BetheBloch :   Emin=  297.505 keV      Emax=         10 TeV

hBrems:   for  pi+    SubType= 3
      dE/dx and range tables from 100 eV  to 10 TeV in 77 bins
      Lambda tables from threshold to 10 TeV in 77 bins, spline: 1
      ===== EM models for the G4Region  DefaultRegionForTheWorld ======
               hBrem :   Emin=        0 eV       Emax=         10 TeV

hPairProd:   for  pi+    SubType= 4
      dE/dx and range tables from 100 eV  to 10 TeV in 77 bins
      Lambda tables from threshold to 10 TeV in 77 bins, spline: 1
      ===== EM models for the G4Region  DefaultRegionForTheWorld ======
           hPairProd :   Emin=        0 eV       Emax=         10 TeV

msc:   for pi-    SubType= 10
      Lambda tables from 100 eV  to 10 TeV in 77 bins, spline: 1
      RangeFactor= 0.2, stepLimitType: 0, latDisplacement: 1
      ===== EM models for the G4Region  DefaultRegionForTheWorld ======
          UrbanMsc90 :   Emin=        0 eV       Emax=         10 TeV

hIoni:   for  pi-    SubType= 2
      dE/dx and range tables from 100 eV  to 10 TeV in 77 bins
      Lambda tables from threshold to 10 TeV in 77 bins, spline: 1
      finalRange(mm)= 1, dRoverRange= 0.2, integral: 1, fluct: 1, linLossLimit= 0.01
      ===== EM models for the G4Region  DefaultRegionForTheWorld ======
            ICRU73QO :   Emin=        0 eV       Emax=    297.505 keV
          BetheBloch :   Emin=  297.505 keV      Emax=         10 TeV

hBrems:   for  pi-    SubType= 3
      dE/dx and range tables from 100 eV  to 10 TeV in 77 bins
      Lambda tables from threshold to 10 TeV in 77 bins, spline: 1
      ===== EM models for the G4Region  DefaultRegionForTheWorld ======
               hBrem :   Emin=        0 eV       Emax=         10 TeV

hPairProd:   for  pi-    SubType= 4
      dE/dx and range tables from 100 eV  to 10 TeV in 77 bins
      Lambda tables from threshold to 10 TeV in 77 bins, spline: 1
      ===== EM models for the G4Region  DefaultRegionForTheWorld ======
           hPairProd :   Emin=        0 eV       Emax=         10 TeV

Region <DefaultRegionForTheWorld> -- appears in <World> world volume
 Root logical volume(s) : World 
 Pointers : G4VUserRegionInformation[0], G4UserLimits[0], G4FastSimulationManager[0], G4UserSteppingAction[0]
 Materials : Galactic Aluminium Aerogel 
 Production cuts :   gamma 1 mm      e- 1 mm      e+ 1 mm  proton 1 mm 

========= Table of registered couples ==============================

Index : 0     used in the geometry : Yes     recalculation needed : No 
 Material : Galactic
 Range cuts        :  gamma  1 mm     e-  1 mm     e+  1 mm  proton 1 mm 
 Energy thresholds :  gamma  990 eV     e-  990 eV     e+  990 eV  proton 100 keV
 Region(s) which use this couple : 
    DefaultRegionForTheWorld

Index : 1     used in the geometry : Yes     recalculation needed : No 
 Material : Aluminium
 Range cuts        :  gamma  1 mm     e-  1 mm     e+  1 mm  proton 1 mm 
 Energy thresholds :  gamma  6.90363 keV    e-  598.345 keV    e+  570.85 keV proton 100 keV
 Region(s) which use this couple : 
    DefaultRegionForTheWorld

Index : 2     used in the geometry : Yes     recalculation needed : No 
 Material : Aerogel
 Range cuts        :  gamma  1 mm     e-  1 mm     e+  1 mm  proton 1 mm 
 Energy thresholds :  gamma  1.71771 keV    e-  119.266 keV    e+  116.885 keV proton 100 keV
 Region(s) which use this couple : 
    DefaultRegionForTheWorld

====================================================================

Start closing geometry.
G4GeometryManager::ReportVoxelStats -- Voxel Statistics

    Total memory consumed for geometry optimisation:   1 kByte
    Total CPU time elapsed for geometry optimisation: 0 seconds

    Voxelisation: top CPU users:
    Percent   Total CPU    System CPU       Memory  Volume
    -------   ----------   ----------     --------  ----------
       0.00         0.00         0.00            2k Calorimeter
       0.00         0.00         0.00            0k Layer

    Voxelisation: top memory users:
    Percent     Memory      Heads    Nodes   Pointers    Total CPU    Volume
    -------   --------     ------   ------   --------   ----------    ----------
      87.60          1k         1       30         30         0.00    Calorimeter
      12.40          0k         1        3          4         0.00    Layer
### Run 0 start.
Start Run processing.

---> Begin of event: 0

--------- Ranecu engine status ---------
 Initial seed (index) = 0
 Current couple of seeds = 9876, 54321
----------------------------------------
---> End of event: 0
   Absorber: total energy:  313.42 MeV       total track length: 74.1124 cm 
        Gap: total energy: 71.8895 MeV       total track length: 1.96121 m  

---> Begin of event: 1024

--------- Ranecu engine status ---------
 Initial seed (index) = 0
 Current couple of seeds = 1444954812, 1941189890
----------------------------------------
---> End of event: 1024
   Absorber: total energy: 408.945 MeV       total track length: 96.4462 cm 
        Gap: total energy: 88.2736 MeV       total track length: 2.41921 m  

---> Begin of event: 2048

--------- Ranecu engine status ---------
 Initial seed (index) = 0
 Current couple of seeds = 1822445206, 1907164516
----------------------------------------
---> End of event: 2048
   Absorber: total energy: 337.523 MeV       total track length: 79.7483 cm 
        Gap: total energy: 80.0809 MeV       total track length: 2.20203 m  

---> Begin of event: 3072

--------- Ranecu engine status ---------
 Initial seed (index) = 0
 Current couple of seeds = 532359230, 1352470377
----------------------------------------
---> End of event: 3072
   Absorber: total energy: 352.925 MeV       total track length: 86.3529 cm 
        Gap: total energy: 70.7845 MeV       total track length: 1.99359 m  
Run terminated.
Run Summary
  Number of events processed : 4096
  User=35.56s Real=35.57s Sys=0.01s

--------------------End of Run------------------------------

 mean Energy in Absorber : 368.549 MeV +- 62.2221 MeV
 mean Energy in Gap      : 79.2467 MeV +- 14.6649 MeV

 mean trackLength in Absorber : 86.8213 cm  +- 14.5468 cm 
 mean trackLength in Gap      : 2.18593 m   +- 40.5204 cm 
------------------------------------------------------------

EFFICIENCY = 0.993896
MEAN = 368.549
VAR = 3872.53
SD = 62.2297
R = 0.00263829
SHIFT = -94.7574
VOV = 0.00334711
FOM = 4038.97
THE LARGEST SCORE = 432.348 and it happend at 3939th event
Affected Mean = 368.564 and its ratio to orignal is 1.00004
Affected VAR = 3872.58 and its ratio to orignal is 1.00001
Affected R = 0.00263787 and its ratio to orignal is 0.999842
Affected SHIFT = -94.7482 and its ratio to orignal is 0.999904
Affected FOM = 4038.97 and its ratio to orignal is 1
MEAN distribution is not RANDOM
r follows 1/std::sqrt(N)
r is monotonically decrease 
r is less than 0.1. r = 0.00263829
VOV follows 1/std::sqrt(N)
VOV is monotonically decrease 
FOM distribution is RANDOM
SLOPE is large enough
This result passes 7 / 8 Convergence Test.

i/16 till_ith  mean  var  sd  r  vov  fom  shift  e  r2eff  r2int
1 255 373.355 2400.55 48.9954 0.00820189 0.0684628 6577.54 -76.7158 0.996094 1.53186e-05 5.16896e-05 
2 511 367.923 3049.48 55.2221 0.00663317 0.0206101 5107.37 -70.4772 0.998047 3.82216e-06 4.00909e-05 
3 767 369.615 3363.02 57.9916 0.00566154 0.0179814 4649.52 -86.8806 0.994792 6.81719e-06 2.51941e-05 
4 1023 369.154 3503.21 59.1879 0.00501044 0.0139248 4465.64 -89.8273 0.994141 5.75577e-06 1.93242e-05 
5 1279 369.192 3673.22 60.6071 0.00458845 0.0112836 4259.84 -93.9535 0.99375 4.91352e-06 1.61239e-05 
6 1535 368.689 3805.09 61.6854 0.00426901 0.00907678 4113.29 -94.4194 0.99349 4.26633e-06 1.39463e-05 
7 1791 368.178 3806.43 61.6963 0.00395852 0.00730855 4106.61 -91.1416 0.99442 3.13151e-06 1.25296e-05 
8 2047 367.941 3796.1 61.6125 0.0037002 0.00639117 4114.82 -90.5695 0.994141 2.87789e-06 1.08069e-05 
9 2303 367.893 3777.81 61.4639 0.00348063 0.00569245 4131.33 -90.16 0.993924 2.65344e-06 9.45606e-06 
10 2559 367.982 3820.72 61.812 0.00331991 0.00508089 4086.91 -90.6207 0.994141 2.30231e-06 8.71518e-06 
11 2815 368.502 3782.65 61.5032 0.00314516 0.00474788 4132.94 -91.6786 0.993963 2.15682e-06 7.73167e-06 
12 3071 368.954 3708.3 60.8958 0.00297786 0.00443449 4221.99 -91.3986 0.994141 1.91859e-06 6.94618e-06 
13 3327 368.83 3714.26 60.9447 0.0028643 0.00410208 4213.22 -91.4559 0.99399 1.81669e-06 6.38507e-06 
14 3583 368.404 3789.14 61.556 0.00279101 0.00378182 4126.45 -92.3153 0.993862 1.7233e-06 6.06428e-06 
15 3839 368.318 3894.63 62.4069 0.00273429 0.00352879 4014.27 -94.3832 0.99375 1.63784e-06 5.83655e-06 
16 4095 368.549 3872.53 62.2297 0.00263829 0.00334711 4040.11 -94.7574 0.993896 1.49927e-06 5.45961e-06 
EFFICIENCY = 0.993896
MEAN = 79.2467
VAR = 215.111
SD = 14.6667
R = 0.00289182
SHIFT = -14.7531
VOV = 0.00220718
FOM = 3361.82
THE LARGEST SCORE = 121.647 and it happend at 1308th event
Affected Mean = 79.257 and its ratio to orignal is 1.00013
Affected VAR = 215.498 and its ratio to orignal is 1.0018
Affected R = 0.00289368 and its ratio to orignal is 1.00064
Affected SHIFT = -14.6954 and its ratio to orignal is 0.99609
Affected FOM = 3360.88 and its ratio to orignal is 0.999719
MEAN distribution is not RANDOM
r follows 1/std::sqrt(N)
r is monotonically decrease 
r is less than 0.1. r = 0.00289182
VOV follows 1/std::sqrt(N)
VOV is monotonically decrease 
FOM distribution is RANDOM
SLOPE is large enough
This result passes 7 / 8 Convergence Test.

i/16 till_ith  mean  var  sd  r  vov  fom  shift  e  r2eff  r2int
1 255 81.2678 154.627 12.4349 0.00956322 0.0364495 4838.19 -9.75648 0.996094 1.53186e-05 7.57793e-05 
2 511 79.8708 178.854 13.3736 0.00739991 0.0125814 4103.81 -9.34503 0.998047 3.82216e-06 5.08295e-05 
3 767 79.8357 196.924 14.033 0.00634266 0.0111246 3704.54 -12.823 0.994792 6.81719e-06 3.33598e-05 
4 1023 79.4457 201.51 14.1954 0.00558378 0.00856538 3595.67 -13.2191 0.994141 5.75577e-06 2.53923e-05 
5 1279 79.3369 210.905 14.5226 0.00511639 0.00706026 3426.09 -14.2269 0.99375 4.91352e-06 2.12434e-05 
6 1535 79.217 216.76 14.7228 0.00474215 0.00576036 3333.44 -14.2688 0.99349 4.26633e-06 1.8207e-05 
7 1791 79.0001 212.819 14.5883 0.00436223 0.0047541 3381.68 -13.7831 0.99442 3.13151e-06 1.58869e-05 
8 2047 78.9552 211.384 14.539 0.00406902 0.0042138 3402.69 -13.8436 0.994141 2.87789e-06 1.36709e-05 
9 2303 79.0322 212.223 14.5679 0.00384017 0.0037216 3393.93 -13.873 0.993924 2.65344e-06 1.20871e-05 
10 2559 79.0274 214.264 14.6377 0.0036608 0.00333537 3361.2 -14.0532 0.994141 2.30231e-06 1.10939e-05 
11 2815 79.093 211.743 14.5514 0.00346697 0.00311126 3401.29 -14.1774 0.993963 2.15682e-06 9.85879e-06 
12 3071 79.1873 207.717 14.4124 0.00328375 0.00288994 3472.05 -14.0471 0.994141 1.91859e-06 8.86091e-06 
13 3327 79.2134 208.105 14.4259 0.00315683 0.00268438 3468.56 -14.0773 0.99399 1.81669e-06 8.1459e-06 
14 3583 79.1786 210.419 14.5058 0.00306021 0.0024989 3432.4 -14.3026 0.993862 1.7233e-06 7.63898e-06 
15 3839 79.1749 216.038 14.6982 0.0029958 0.00234154 3344.03 -14.7821 0.99375 1.63784e-06 7.33461e-06 
16 4095 79.2467 215.111 14.6667 0.00289182 0.00220718 3362.77 -14.7531 0.993896 1.49927e-06 6.86129e-06 
EFFICIENCY = 0.993896
MEAN = 868.213
VAR = 21166.3
SD = 145.486
R = 0.00261828
SHIFT = -222.941
VOV = 0.00339965
FOM = 4100.95
THE LARGEST SCORE = 1026.12 and it happend at 3939th event
Affected Mean = 868.251 and its ratio to orignal is 1.00004
Affected VAR = 21167.2 and its ratio to orignal is 1.00004
Affected R = 0.0026179 and its ratio to orignal is 0.999855
Affected SHIFT = -222.912 and its ratio to orignal is 0.99987
Affected FOM = 4100.95 and its ratio to orignal is 1
MEAN distribution is not RANDOM
r follows 1/std::sqrt(N)
r is monotonically decrease 
r is less than 0.1. r = 0.00261828
VOV follows 1/std::sqrt(N)
VOV is monotonically decrease 
FOM distribution is RANDOM
SLOPE is large enough
This result passes 7 / 8 Convergence Test.

i/16 till_ith  mean  var  sd  r  vov  fom  shift  e  r2eff  r2int
1 255 879.864 12998.1 114.009 0.00809851 0.0720102 6746.54 -183.382 0.996094 1.53186e-05 5.00111e-05 
2 511 867.23 16485.9 128.397 0.00654315 0.0214213 5248.88 -166.982 0.998047 3.82216e-06 3.8907e-05 
3 767 870.94 18273 135.178 0.00560062 0.0185304 4751.22 -205.28 0.994792 6.81719e-06 2.45089e-05 
4 1023 869.922 19075.3 138.113 0.00496142 0.0142763 4554.32 -211.991 0.994141 5.75577e-06 1.88358e-05 
5 1279 870.299 20050 141.598 0.00454762 0.011518 4336.68 -221.499 0.99375 4.91352e-06 1.57511e-05 
6 1535 869.072 20751.6 144.054 0.00422936 0.00927229 4190.79 -222.57 0.99349 4.26633e-06 1.36095e-05 
7 1791 867.753 20738.8 144.01 0.00392037 0.00746723 4186.93 -214.818 0.99442 3.13151e-06 1.22292e-05 
8 2047 867.131 20697.9 143.868 0.00366618 0.00652398 4191.55 -213.436 0.994141 2.87789e-06 1.05564e-05 
9 2303 866.913 20610.6 143.564 0.00345007 0.00580584 4204.82 -212.37 0.993924 2.65344e-06 9.24439e-06 
10 2559 866.919 20851.6 144.401 0.00329208 0.00517444 4156.29 -213.339 0.994141 2.30231e-06 8.53127e-06 
11 2815 868.11 20650.4 143.703 0.00311942 0.00483508 4201.43 -215.87 0.993963 2.15682e-06 7.57049e-06 
12 3071 869.214 20247 142.292 0.00295354 0.00451336 4291.81 -215.13 0.994141 1.91859e-06 6.80196e-06 
13 3327 868.923 20284.4 142.423 0.00284124 0.00417757 4281.9 -215.368 0.99399 1.81669e-06 6.25352e-06 
14 3583 867.969 20708.9 143.906 0.00276943 0.00384744 4191.02 -217.366 0.993862 1.7233e-06 5.9443e-06 
15 3839 867.707 21283.2 145.888 0.00271319 0.00358744 4076.95 -222.17 0.99375 1.63784e-06 5.72164e-06 
16 4095 868.213 21166.3 145.486 0.00261828 0.00339965 4102.1 -222.941 0.993896 1.49927e-06 5.35445e-06 
EFFICIENCY = 0.993896
MEAN = 2185.93
VAR = 164231
SD = 405.254
R = 0.00289675
SHIFT = -397.748
VOV = 0.00217606
FOM = 3350.39
THE LARGEST SCORE = 3398.26 and it happend at 1308th event
Affected Mean = 2186.23 and its ratio to orignal is 1.00014
Affected VAR = 164549 and its ratio to orignal is 1.00194
Affected R = 0.00289881 and its ratio to orignal is 1.00071
Affected SHIFT = -396.003 and its ratio to orignal is 0.995613
Affected FOM = 3349.44 and its ratio to orignal is 0.999719
MEAN distribution is not RANDOM
r follows 1/std::sqrt(N)
r is monotonically decrease 
r is less than 0.1. r = 0.00289675
VOV follows 1/std::sqrt(N)
VOV is monotonically decrease 
FOM distribution is RANDOM
SLOPE is large enough
This result passes 7 / 8 Convergence Test.

i/16 till_ith  mean  var  sd  r  vov  fom  shift  e  r2eff  r2int
1 255 2243.43 119209 345.267 0.00961884 0.0357316 4782.4 -258.889 0.996094 1.53186e-05 7.6842e-05 
2 511 2203.46 136936 370.048 0.00742195 0.01239 4079.47 -249.862 0.998047 3.82216e-06 5.11557e-05 
3 767 2202.05 150442 387.869 0.00635591 0.0109981 3689.12 -346.129 0.994792 6.81719e-06 3.35278e-05 
4 1023 2191.08 154134 392.599 0.00559939 0.00842471 3575.63 -356.783 0.994141 5.75577e-06 2.55668e-05 
5 1279 2187.51 161385 401.727 0.00513305 0.00693993 3403.88 -383.002 0.99375 4.91352e-06 2.14141e-05 
6 1535 2184.34 165932 407.348 0.00475828 0.00564863 3310.88 -382.273 0.99349 4.26633e-06 1.83602e-05 
7 1791 2178.04 162634 403.279 0.00437392 0.00466346 3363.62 -368.689 0.99442 3.13151e-06 1.5989e-05 
8 2047 2177.23 161226 401.529 0.00407518 0.0041563 3392.41 -372.135 0.994141 2.87789e-06 1.37211e-05 
9 2303 2179.65 161923 402.397 0.00384615 0.00367144 3383.38 -373.026 0.993924 2.65344e-06 1.2133e-05 
10 2559 2179.71 163216 404 0.00366322 0.00329304 3356.76 -378.306 0.994141 2.30231e-06 1.11116e-05 
11 2815 2180.99 161042 401.3 0.00346736 0.00307738 3400.52 -381.862 0.993963 2.15682e-06 9.8615e-06 
12 3071 2183.74 158181 397.72 0.00328598 0.00285193 3467.33 -377.934 0.994141 1.91859e-06 8.87558e-06 
13 3327 2184.72 158617 398.268 0.00316001 0.00265006 3461.59 -378.919 0.99399 1.81669e-06 8.16596e-06 
14 3583 2183.87 160617 400.77 0.00306537 0.00246243 3420.84 -385.137 0.993862 1.7233e-06 7.6706e-06 
15 3839 2183.91 164883 406.057 0.00300045 0.00230923 3333.67 -398.792 0.99375 1.63784e-06 7.36251e-06 
16 4095 2185.93 164231 405.254 0.00289675 0.00217606 3351.33 -397.748 0.993896 1.49927e-06 6.88983e-06 
#/run/beamOn 16384
#/run/beamOn 65536
Graphics systems deleted.
Visualization Manager deleting...
UserDetectorConstruction deleted.
UserPhysicsList deleted.
UserRunAction deleted.
UserPrimaryGenerator deleted.
G4 kernel has come to Quit state.
EventManager deleted.
UImanager deleted.
Units table cleared.
StateManager deleted.
RunManagerKernel is deleted.
RunManager is deleting.

